[
  {
    "name": "Myron Moore",
    "email": "Eino_Hettinger@yahoo.com",
    "birthDate": "29/4/2023",
    "address": {
      "street": "Kozey Burgs",
      "state": "Maine",
      "city": "Lake Kirkside",
      "country": "Cuba",
      "zip": "64542-7292"
    }
  },
  {
    "name": "Phyllis Lueilwitz",
    "email": "Vivienne_Wolf11@gmail.com",
    "birthDate": "10/9/2023",
    "address": {
      "street": "Kozey Burgs",
      "state": "Maine",
      "city": "Lake Kirkside",
      "country": "Cuba",
      "zip": "64542-7292"
    }
  },
  {
    "name": "Bernice Satterfield V",
    "email": "Ashly_Littel@gmail.com",
    "birthDate": "9/2/2023",
    "address": {
      "street": "Kozey Burgs",
      "state": "Maine",
      "city": "Lake Kirkside",
      "country": "Cuba",
      "zip": "64542-7292"
    }
  },
  {
    "name": "Marian Hauck",
    "email": "Liam94@yahoo.com",
    "birthDate": "12/9/2023",
    "address": {
      "street": "Kozey Burgs",
      "state": "Maine",
      "city": "Lake Kirkside",
      "country": "Cuba",
      "zip": "64542-7292"
    }
  },
  {
    "name": "George Kulas",
    "email": "Amber.Funk@yahoo.com",
    "birthDate": "21/10/2022",
    "address": {
      "street": "Kozey Burgs",
      "state": "Maine",
      "city": "Lake Kirkside",
      "country": "Cuba",
      "zip": "64542-7292"
    }
  },
  {
    "name": "Glenn Jast DDS",
    "email": "Alia.Gaylord34@gmail.com",
    "birthDate": "19/7/2023",
    "address": {
      "street": "Kozey Burgs",
      "state": "Maine",
      "city": "Lake Kirkside",
      "country": "Cuba",
      "zip": "64542-7292"
    }
  },
  {
    "name": "Benny Nolan",
    "email": "Effie_Corwin19@yahoo.com",
    "birthDate": "7/12/2022",
    "address": {
      "street": "Larkin Freeway",
      "state": "Ohio",
      "city": "South Vernontown",
      "country": "Holy See (Vatican City State)",
      "zip": "36461"
    }
  },
  {
    "name": "Carmen Rolfson Sr.",
    "email": "Loyal_Rohan12@gmail.com",
    "birthDate": "10/4/2023",
    "address": {
      "street": "Torphy Alley",
      "state": "Maryland",
      "city": "Port Leo",
      "country": "Cuba",
      "zip": "57469-3381"
    }
  },
  {
    "name": "Gail Runolfsdottir",
    "email": "Antonette_Rowe@yahoo.com",
    "birthDate": "14/8/2023",
    "address": {
      "street": "Kozey Burgs",
      "state": "Maine",
      "city": "Lake Kirkside",
      "country": "Cuba",
      "zip": "64542-7292"
    }
  },
  {
    "name": "April Rolfson",
    "email": "Lorena.Little5@hotmail.com",
    "birthDate": "1/8/2023",
    "address": {
      "street": "Arianna Drive",
      "state": "Colorado",
      "city": "Lafayette",
      "country": "Portugal",
      "zip": "78857-9842"
    }
  }
]